Library/Bee/artifacts/mvdfrm/Unity.2D.Sprite.Editor.ref.dll_7C063CDBF8483C05.mvfrm
Library/Bee/artifacts/mvdfrm/Unity.2D.Tilemap.Editor.ref.dll_7F677439D3763A64.mvfrm
Library/Bee/artifacts/mvdfrm/Unity.Analytics.DataPrivacy.ref.dll_4492E425940BA071.mvfrm
Library/Bee/artifacts/mvdfrm/Unity.PlasticSCM.Editor.ref.dll_61765147EED78A29.mvfrm
Library/Bee/artifacts/mvdfrm/Unity.Rider.Editor.ref.dll_58BAED9DE5C1964C.mvfrm
Library/Bee/artifacts/mvdfrm/Unity.Services.Core.Analytics.ref.dll_FD66879B60C7F5B2.mvfrm
Library/Bee/artifacts/mvdfrm/Unity.Services.Core.Environments.ref.dll_A46F9ABD0EDC066A.mvfrm
Library/Bee/artifacts/mvdfrm/Unity.Services.Core.ref.dll_7E81C44967154A2A.mvfrm
Library/Bee/artifacts/mvdfrm/Unity.TextMeshPro.Editor.ref.dll_40C14F454DBEB703.mvfrm
Library/Bee/artifacts/mvdfrm/Unity.TextMeshPro.ref.dll_0220FBA39878038E.mvfrm
Library/Bee/artifacts/mvdfrm/Unity.Timeline.Editor.ref.dll_DBD85984573F0B85.mvfrm
Library/Bee/artifacts/mvdfrm/Unity.Timeline.ref.dll_7F91E8C8AE2BCEEC.mvfrm
Library/Bee/artifacts/mvdfrm/Unity.VSCode.Editor.ref.dll_A18F31222F35312C.mvfrm
Library/Bee/artifacts/mvdfrm/Unity.VisualScripting.Core.Editor.ref.dll_351F5978B923B1B0.mvfrm
Library/Bee/artifacts/mvdfrm/Unity.VisualScripting.Core.ref.dll_EA92E8A85D600211.mvfrm
Library/Bee/artifacts/mvdfrm/Unity.VisualScripting.Flow.Editor.ref.dll_B2504227C8023CF1.mvfrm
Library/Bee/artifacts/mvdfrm/Unity.VisualScripting.Flow.ref.dll_31A3C8FEDF6976C0.mvfrm
Library/Bee/artifacts/mvdfrm/Unity.VisualScripting.SettingsProvider.Editor.ref.dll_295465F8D4C4859B.mvfrm
Library/Bee/artifacts/mvdfrm/Unity.VisualScripting.Shared.Editor.ref.dll_FC9237B9DF88B7CA.mvfrm
Library/Bee/artifacts/mvdfrm/Unity.VisualScripting.State.Editor.ref.dll_C13AB9B8D4557B0C.mvfrm
Library/Bee/artifacts/mvdfrm/Unity.VisualScripting.State.ref.dll_695E51A145AA52F5.mvfrm
Library/Bee/artifacts/mvdfrm/Unity.VisualStudio.Editor.ref.dll_CFFC789CDF177EE0.mvfrm
Library/Bee/artifacts/mvdfrm/UnityEditor.Purchasing.ref.dll_28A080F0FDF6779C.mvfrm
Library/Bee/artifacts/mvdfrm/UnityEditor.SpatialTracking.ref.dll_1958D951C1DD0283.mvfrm
Library/Bee/artifacts/mvdfrm/UnityEditor.UI.ref.dll_6A0DDEC5ED23C452.mvfrm
Library/Bee/artifacts/mvdfrm/UnityEditor.XR.LegacyInputHelpers.ref.dll_8669C5BA4ECC7030.mvfrm
Library/Bee/artifacts/mvdfrm/UnityEngine.Advertisements.Editor.ref.dll_DD14D814CD2EAD1A.mvfrm
Library/Bee/artifacts/mvdfrm/UnityEngine.Advertisements.ref.dll_4580E5CB5A91D807.mvfrm
Library/Bee/artifacts/mvdfrm/UnityEngine.Purchasing.Codeless.ref.dll_153CE5C4EDEB6523.mvfrm
Library/Bee/artifacts/mvdfrm/UnityEngine.Purchasing.SecurityCore.ref.dll_0A9BCACF577CD0EC.mvfrm
Library/Bee/artifacts/mvdfrm/UnityEngine.Purchasing.SecurityStub.ref.dll_55C28FC2FAE98C2B.mvfrm
Library/Bee/artifacts/mvdfrm/UnityEngine.Purchasing.Stores.ref.dll_E1A4F7B26CE3D69F.mvfrm
Library/Bee/artifacts/mvdfrm/UnityEngine.Purchasing.ref.dll_F4BECB9F29B9D587.mvfrm
Library/Bee/artifacts/mvdfrm/UnityEngine.SpatialTracking.ref.dll_A599CB793AD585A8.mvfrm
Library/Bee/artifacts/mvdfrm/UnityEngine.UI.ref.dll_2673B520F345ECBD.mvfrm
Library/Bee/artifacts/mvdfrm/UnityEngine.XR.LegacyInputHelpers.ref.dll_46F95A708A11C335.mvfrm
Library/Bee/artifacts/mvdfrm/Unity.Android.Gradle.dll_BC1B4304682A87A3.mvfrm
Library/Bee/artifacts/mvdfrm/Unity.Android.Types.dll_336450E217C81949.mvfrm
Library/Bee/artifacts/mvdfrm/UnityEditor.iOS.Extensions.Common.dll_7B1D088E4DA96220.mvfrm
Library/Bee/artifacts/mvdfrm/UnityEditor.iOS.Extensions.Xcode.dll_AC84C1ACD725AB2C.mvfrm
Library/Bee/artifacts/mvdfrm/UnityEditor.CoreModule.dll_028BE282C5CDA40D.mvfrm
Library/Bee/artifacts/mvdfrm/UnityEditor.DeviceSimulatorModule.dll_51066FA9489B6244.mvfrm
Library/Bee/artifacts/mvdfrm/UnityEditor.DiagnosticsModule.dll_F61E0FF393136392.mvfrm
Library/Bee/artifacts/mvdfrm/UnityEditor.dll_2B1730903093E7F8.mvfrm
Library/Bee/artifacts/mvdfrm/UnityEditor.GraphViewModule.dll_05E2C9D3BF26C929.mvfrm
Library/Bee/artifacts/mvdfrm/UnityEditor.PackageManagerUIModule.dll_7E6CB0F41E4D9329.mvfrm
Library/Bee/artifacts/mvdfrm/UnityEditor.QuickSearchModule.dll_812D9100EBEA5FEB.mvfrm
Library/Bee/artifacts/mvdfrm/UnityEditor.SceneTemplateModule.dll_9A445D0E8DB099CC.mvfrm
Library/Bee/artifacts/mvdfrm/UnityEditor.TextCoreFontEngineModule.dll_0E3053A327F022EB.mvfrm
Library/Bee/artifacts/mvdfrm/UnityEditor.TextCoreTextEngineModule.dll_56188A14B773DC09.mvfrm
Library/Bee/artifacts/mvdfrm/UnityEditor.UIBuilderModule.dll_5A6B76F031DF425D.mvfrm
Library/Bee/artifacts/mvdfrm/UnityEditor.UIElementsModule.dll_0DAFB2A252D9AA29.mvfrm
Library/Bee/artifacts/mvdfrm/UnityEditor.UIElementsSamplesModule.dll_CB815F89F22C2CD4.mvfrm
Library/Bee/artifacts/mvdfrm/UnityEditor.UIServiceModule.dll_935D88531B169277.mvfrm
Library/Bee/artifacts/mvdfrm/UnityEditor.UnityConnectModule.dll_53E5A053219F5943.mvfrm
Library/Bee/artifacts/mvdfrm/UnityEngine.AccessibilityModule.dll_CCE9C8A58E26C169.mvfrm
Library/Bee/artifacts/mvdfrm/UnityEngine.AIModule.dll_52E90F8759F9F2C1.mvfrm
Library/Bee/artifacts/mvdfrm/UnityEngine.AndroidJNIModule.dll_8BF89B759BF918FF.mvfrm
Library/Bee/artifacts/mvdfrm/UnityEngine.AnimationModule.dll_D46845FC99839DCF.mvfrm
Library/Bee/artifacts/mvdfrm/UnityEngine.ARModule.dll_0C5BD48AB717518A.mvfrm
Library/Bee/artifacts/mvdfrm/UnityEngine.AssetBundleModule.dll_C516C3F24E5114DD.mvfrm
Library/Bee/artifacts/mvdfrm/UnityEngine.AudioModule.dll_85023DE3F1E67301.mvfrm
Library/Bee/artifacts/mvdfrm/UnityEngine.ClothModule.dll_EBEA9ADECC0351E5.mvfrm
Library/Bee/artifacts/mvdfrm/UnityEngine.CoreModule.dll_25ACB5D56DD30F38.mvfrm
Library/Bee/artifacts/mvdfrm/UnityEngine.CrashReportingModule.dll_306C4117624355D0.mvfrm
Library/Bee/artifacts/mvdfrm/UnityEngine.DirectorModule.dll_5868434BD3C36B55.mvfrm
Library/Bee/artifacts/mvdfrm/UnityEngine.dll_5DBB77688F0774DD.mvfrm
Library/Bee/artifacts/mvdfrm/UnityEngine.DSPGraphModule.dll_5DB9A4B546243C76.mvfrm
Library/Bee/artifacts/mvdfrm/UnityEngine.GameCenterModule.dll_B645E590623A09F0.mvfrm
Library/Bee/artifacts/mvdfrm/UnityEngine.GIModule.dll_EB255894F5A8DADB.mvfrm
Library/Bee/artifacts/mvdfrm/UnityEngine.GridModule.dll_031DD1C38627A52F.mvfrm
Library/Bee/artifacts/mvdfrm/UnityEngine.HotReloadModule.dll_55B1040274B6B951.mvfrm
Library/Bee/artifacts/mvdfrm/UnityEngine.ImageConversionModule.dll_C2A52FCB3A7B27BC.mvfrm
Library/Bee/artifacts/mvdfrm/UnityEngine.IMGUIModule.dll_BD61DD4AB81806E2.mvfrm
Library/Bee/artifacts/mvdfrm/UnityEngine.InputLegacyModule.dll_565BDF10E642CACE.mvfrm
Library/Bee/artifacts/mvdfrm/UnityEngine.InputModule.dll_EB780594681E97A5.mvfrm
Library/Bee/artifacts/mvdfrm/UnityEngine.JSONSerializeModule.dll_2D0151E18D6221F3.mvfrm
Library/Bee/artifacts/mvdfrm/UnityEngine.LocalizationModule.dll_11CEDFBB6AA31F02.mvfrm
Library/Bee/artifacts/mvdfrm/UnityEngine.ParticleSystemModule.dll_837E8A63D054E15E.mvfrm
Library/Bee/artifacts/mvdfrm/UnityEngine.PerformanceReportingModule.dll_E768CA904D97DBF7.mvfrm
Library/Bee/artifacts/mvdfrm/UnityEngine.Physics2DModule.dll_210E35ED3A809564.mvfrm
Library/Bee/artifacts/mvdfrm/UnityEngine.PhysicsModule.dll_F3EBDC3CF643F7F2.mvfrm
Library/Bee/artifacts/mvdfrm/UnityEngine.ProfilerModule.dll_8AAE7C826D1CF262.mvfrm
Library/Bee/artifacts/mvdfrm/UnityEngine.RuntimeInitializeOnLoadManagerInitializerModule.dll_00671DDB4206CE2D.mvfrm
Library/Bee/artifacts/mvdfrm/UnityEngine.ScreenCaptureModule.dll_46E8FF66A1CE4E55.mvfrm
Library/Bee/artifacts/mvdfrm/UnityEngine.SharedInternalsModule.dll_46B66EA0B1A9230C.mvfrm
Library/Bee/artifacts/mvdfrm/UnityEngine.SpriteMaskModule.dll_9F72582083A99F6A.mvfrm
Library/Bee/artifacts/mvdfrm/UnityEngine.SpriteShapeModule.dll_DE77F14D03F34CE7.mvfrm
Library/Bee/artifacts/mvdfrm/UnityEngine.StreamingModule.dll_88FD334CE90B550D.mvfrm
Library/Bee/artifacts/mvdfrm/UnityEngine.SubstanceModule.dll_65A84796345E531B.mvfrm
Library/Bee/artifacts/mvdfrm/UnityEngine.SubsystemsModule.dll_0A1FBE8251F1877D.mvfrm
Library/Bee/artifacts/mvdfrm/UnityEngine.TerrainModule.dll_0E3257ABCC0240E0.mvfrm
Library/Bee/artifacts/mvdfrm/UnityEngine.TerrainPhysicsModule.dll_83F93336E997DBEB.mvfrm
Library/Bee/artifacts/mvdfrm/UnityEngine.TextCoreFontEngineModule.dll_8C8FCEF63AEDE1B6.mvfrm
Library/Bee/artifacts/mvdfrm/UnityEngine.TextCoreTextEngineModule.dll_D4780567CA719AD4.mvfrm
Library/Bee/artifacts/mvdfrm/UnityEngine.TextRenderingModule.dll_702871715905CE4A.mvfrm
Library/Bee/artifacts/mvdfrm/UnityEngine.TilemapModule.dll_AD2EBF2CE3BF21E9.mvfrm
Library/Bee/artifacts/mvdfrm/UnityEngine.TLSModule.dll_CD1DF1771E5BFC46.mvfrm
Library/Bee/artifacts/mvdfrm/UnityEngine.UIElementsModule.dll_0E5E1FEA551DC374.mvfrm
Library/Bee/artifacts/mvdfrm/UnityEngine.UIElementsNativeModule.dll_C8E665898FC6034B.mvfrm
Library/Bee/artifacts/mvdfrm/UnityEngine.UIModule.dll_4E5CADB4B640F86D.mvfrm
Library/Bee/artifacts/mvdfrm/UnityEngine.UmbraModule.dll_FFD6E9FC7F0D1E74.mvfrm
Library/Bee/artifacts/mvdfrm/UnityEngine.UNETModule.dll_B852FDBEBAE204B1.mvfrm
Library/Bee/artifacts/mvdfrm/UnityEngine.UnityAnalyticsCommonModule.dll_82A787D467807A55.mvfrm
Library/Bee/artifacts/mvdfrm/UnityEngine.UnityAnalyticsModule.dll_A31DFB2D7C7C335A.mvfrm
Library/Bee/artifacts/mvdfrm/UnityEngine.UnityConnectModule.dll_414524621C2759EE.mvfrm
Library/Bee/artifacts/mvdfrm/UnityEngine.UnityCurlModule.dll_0784E72E09978FBC.mvfrm
Library/Bee/artifacts/mvdfrm/UnityEngine.UnityTestProtocolModule.dll_8744157C4C27822A.mvfrm
Library/Bee/artifacts/mvdfrm/UnityEngine.UnityWebRequestAssetBundleModule.dll_83B50E39CD7A49AB.mvfrm
Library/Bee/artifacts/mvdfrm/UnityEngine.UnityWebRequestAudioModule.dll_5F651E6ED402A68F.mvfrm
Library/Bee/artifacts/mvdfrm/UnityEngine.UnityWebRequestModule.dll_D4443775456FC23B.mvfrm
Library/Bee/artifacts/mvdfrm/UnityEngine.UnityWebRequestTextureModule.dll_0604C4C059313444.mvfrm
Library/Bee/artifacts/mvdfrm/UnityEngine.UnityWebRequestWWWModule.dll_9F3A4AC3BA315740.mvfrm
Library/Bee/artifacts/mvdfrm/UnityEngine.VehiclesModule.dll_D02B3CCB4DED3AF0.mvfrm
Library/Bee/artifacts/mvdfrm/UnityEngine.VFXModule.dll_4DFC89E5F4C965B3.mvfrm
Library/Bee/artifacts/mvdfrm/UnityEngine.VideoModule.dll_AA0BC24EB4788EA6.mvfrm
Library/Bee/artifacts/mvdfrm/UnityEngine.VRModule.dll_A12ED43A57FB7DE5.mvfrm
Library/Bee/artifacts/mvdfrm/UnityEngine.WindModule.dll_9BFB90FDFF098DA1.mvfrm
Library/Bee/artifacts/mvdfrm/UnityEngine.XRModule.dll_D3ED973EE135CB43.mvfrm
Library/Bee/artifacts/mvdfrm/Unity.Analytics.StandardEvents.dll_60735227600EA8A9.mvfrm
Library/Bee/artifacts/mvdfrm/Unity.Analytics.Editor.dll_E0D924DD687D490D.mvfrm
Library/Bee/artifacts/mvdfrm/Unity.Analytics.Tracker.dll_BD1ACF1843647754.mvfrm
Library/Bee/artifacts/mvdfrm/Unity.VisualScripting.Antlr3.Runtime.dll_E6FD385BA4D87728.mvfrm