Library/Bee/artifacts/mvdfrm/Unity.2D.Sprite.Editor.ref.dll_A298F0F0964CDA5C.mvfrm
Library/Bee/artifacts/mvdfrm/Unity.2D.Tilemap.Editor.ref.dll_E9EA3AB45900FF1D.mvfrm
Library/Bee/artifacts/mvdfrm/Unity.Analytics.DataPrivacy.ref.dll_44AF57CB458B4B6A.mvfrm
Library/Bee/artifacts/mvdfrm/Unity.PlasticSCM.Editor.ref.dll_CBF917C274624EE2.mvfrm
Library/Bee/artifacts/mvdfrm/Unity.Rider.Editor.ref.dll_A276D0F1D4D046E3.mvfrm
Library/Bee/artifacts/mvdfrm/Unity.Services.Core.Analytics.ref.dll_2B40CF9C4928A9CB.mvfrm
Library/Bee/artifacts/mvdfrm/Unity.Services.Core.Environments.ref.dll_4A67E7CED1598121.mvfrm
Library/Bee/artifacts/mvdfrm/Unity.Services.Core.ref.dll_359A71A868AEB8A3.mvfrm
Library/Bee/artifacts/mvdfrm/Unity.TextMeshPro.Editor.ref.dll_C5B7873C632B963A.mvfrm
Library/Bee/artifacts/mvdfrm/Unity.TextMeshPro.ref.dll_EA61D4CF7C90DCE7.mvfrm
Library/Bee/artifacts/mvdfrm/Unity.Timeline.Editor.ref.dll_1305DD42619CF31E.mvfrm
Library/Bee/artifacts/mvdfrm/Unity.Timeline.ref.dll_D292A1F7EB1601C3.mvfrm
Library/Bee/artifacts/mvdfrm/Unity.VSCode.Editor.ref.dll_58A7DE8130CE9FA5.mvfrm
Library/Bee/artifacts/mvdfrm/Unity.VisualScripting.Core.Editor.ref.dll_FE8D1F6CE20A2409.mvfrm
Library/Bee/artifacts/mvdfrm/Unity.VisualScripting.Core.ref.dll_4EC1FE8B3807FE28.mvfrm
Library/Bee/artifacts/mvdfrm/Unity.VisualScripting.Flow.Editor.ref.dll_7BBE081BF0E8AF4A.mvfrm
Library/Bee/artifacts/mvdfrm/Unity.VisualScripting.Flow.ref.dll_95D2DEE1BA1172D7.mvfrm
Library/Bee/artifacts/mvdfrm/Unity.VisualScripting.SettingsProvider.Editor.ref.dll_AD2FFB7646FD92B4.mvfrm
Library/Bee/artifacts/mvdfrm/Unity.VisualScripting.Shared.Editor.ref.dll_CBD4E358CB8CDF43.mvfrm
Library/Bee/artifacts/mvdfrm/Unity.VisualScripting.State.Editor.ref.dll_BC6ADFF987BC82A3.mvfrm
Library/Bee/artifacts/mvdfrm/Unity.VisualScripting.State.ref.dll_697AC546F729FDEE.mvfrm
Library/Bee/artifacts/mvdfrm/Unity.VisualStudio.Editor.ref.dll_F37C0F1BA2EC04B9.mvfrm
Library/Bee/artifacts/mvdfrm/UnityEditor.Purchasing.ref.dll_4F3335059BFB15F3.mvfrm
Library/Bee/artifacts/mvdfrm/UnityEditor.SpatialTracking.ref.dll_19754CF7735CAD7C.mvfrm
Library/Bee/artifacts/mvdfrm/UnityEditor.TestRunner.ref.dll_DE1D13444BAAFBE7.mvfrm
Library/Bee/artifacts/mvdfrm/UnityEditor.UI.ref.dll_BD0E97F52A0DF729.mvfrm
Library/Bee/artifacts/mvdfrm/UnityEditor.XR.LegacyInputHelpers.ref.dll_4FD78BAE77B2E289.mvfrm
Library/Bee/artifacts/mvdfrm/UnityEngine.Advertisements.Editor.ref.dll_A6829E08F6151F73.mvfrm
Library/Bee/artifacts/mvdfrm/UnityEngine.Advertisements.ref.dll_A9AFFBAE3539D41E.mvfrm
Library/Bee/artifacts/mvdfrm/UnityEngine.Purchasing.Codeless.ref.dll_D3CD2839EFC7865C.mvfrm
Library/Bee/artifacts/mvdfrm/UnityEngine.Purchasing.SecurityCore.ref.dll_D9DE766E4380F865.mvfrm
Library/Bee/artifacts/mvdfrm/UnityEngine.Purchasing.SecurityStub.ref.dll_25053B61E6EDB3A4.mvfrm
Library/Bee/artifacts/mvdfrm/UnityEngine.Purchasing.Stores.ref.dll_0F7F3FB355448AB8.mvfrm
Library/Bee/artifacts/mvdfrm/UnityEngine.Purchasing.ref.dll_1B517FB3C7BE73DE.mvfrm
Library/Bee/artifacts/mvdfrm/UnityEngine.SpatialTracking.ref.dll_A5B63F1EEC5530A1.mvfrm
Library/Bee/artifacts/mvdfrm/UnityEngine.TestRunner.ref.dll_AA3B5DF2776E59D2.mvfrm
Library/Bee/artifacts/mvdfrm/UnityEngine.UI.ref.dll_79746E5030301F94.mvfrm
Library/Bee/artifacts/mvdfrm/UnityEngine.XR.LegacyInputHelpers.ref.dll_10672064B2F8358E.mvfrm
Library/Bee/artifacts/mvdfrm/Unity.Android.Gradle.dll_BC1B4304682A87A3.mvfrm
Library/Bee/artifacts/mvdfrm/Unity.Android.Types.dll_336450E217C81949.mvfrm
Library/Bee/artifacts/mvdfrm/UnityEditor.Android.Extensions.dll_A7CA0EE2C085D7C3.mvfrm
Library/Bee/artifacts/mvdfrm/UnityEditor.iOS.Extensions.Common.dll_7B1D088E4DA96220.mvfrm
Library/Bee/artifacts/mvdfrm/UnityEditor.iOS.Extensions.dll_D3587CE1A86C0685.mvfrm
Library/Bee/artifacts/mvdfrm/UnityEditor.iOS.Extensions.Xcode.dll_AC84C1ACD725AB2C.mvfrm
Library/Bee/artifacts/mvdfrm/UnityEditor.WebGL.Extensions.dll_E17B056039F4D5A5.mvfrm
Library/Bee/artifacts/mvdfrm/UnityEditor.Graphs.dll_0ADE83DA6977E13F.mvfrm
Library/Bee/artifacts/mvdfrm/UnityEditor.CoreModule.dll_028BE282C5CDA40D.mvfrm
Library/Bee/artifacts/mvdfrm/UnityEditor.DeviceSimulatorModule.dll_51066FA9489B6244.mvfrm
Library/Bee/artifacts/mvdfrm/UnityEditor.DiagnosticsModule.dll_F61E0FF393136392.mvfrm
Library/Bee/artifacts/mvdfrm/UnityEditor.dll_2B1730903093E7F8.mvfrm
Library/Bee/artifacts/mvdfrm/UnityEditor.GraphViewModule.dll_05E2C9D3BF26C929.mvfrm
Library/Bee/artifacts/mvdfrm/UnityEditor.PackageManagerUIModule.dll_7E6CB0F41E4D9329.mvfrm
Library/Bee/artifacts/mvdfrm/UnityEditor.QuickSearchModule.dll_812D9100EBEA5FEB.mvfrm
Library/Bee/artifacts/mvdfrm/UnityEditor.SceneTemplateModule.dll_9A445D0E8DB099CC.mvfrm
Library/Bee/artifacts/mvdfrm/UnityEditor.TextCoreFontEngineModule.dll_0E3053A327F022EB.mvfrm
Library/Bee/artifacts/mvdfrm/UnityEditor.TextCoreTextEngineModule.dll_56188A14B773DC09.mvfrm
Library/Bee/artifacts/mvdfrm/UnityEditor.UIBuilderModule.dll_5A6B76F031DF425D.mvfrm
Library/Bee/artifacts/mvdfrm/UnityEditor.UIElementsModule.dll_0DAFB2A252D9AA29.mvfrm
Library/Bee/artifacts/mvdfrm/UnityEditor.UIElementsSamplesModule.dll_CB815F89F22C2CD4.mvfrm
Library/Bee/artifacts/mvdfrm/UnityEditor.UIServiceModule.dll_935D88531B169277.mvfrm
Library/Bee/artifacts/mvdfrm/UnityEditor.UnityConnectModule.dll_53E5A053219F5943.mvfrm
Library/Bee/artifacts/mvdfrm/UnityEngine.AccessibilityModule.dll_CCE9C8A58E26C169.mvfrm
Library/Bee/artifacts/mvdfrm/UnityEngine.AIModule.dll_52E90F8759F9F2C1.mvfrm
Library/Bee/artifacts/mvdfrm/UnityEngine.AndroidJNIModule.dll_8BF89B759BF918FF.mvfrm
Library/Bee/artifacts/mvdfrm/UnityEngine.AnimationModule.dll_D46845FC99839DCF.mvfrm
Library/Bee/artifacts/mvdfrm/UnityEngine.ARModule.dll_0C5BD48AB717518A.mvfrm
Library/Bee/artifacts/mvdfrm/UnityEngine.AssetBundleModule.dll_C516C3F24E5114DD.mvfrm
Library/Bee/artifacts/mvdfrm/UnityEngine.AudioModule.dll_85023DE3F1E67301.mvfrm
Library/Bee/artifacts/mvdfrm/UnityEngine.ClothModule.dll_EBEA9ADECC0351E5.mvfrm
Library/Bee/artifacts/mvdfrm/UnityEngine.ClusterInputModule.dll_D3821568D3272C09.mvfrm
Library/Bee/artifacts/mvdfrm/UnityEngine.ClusterRendererModule.dll_56B3321AB8566FC8.mvfrm
Library/Bee/artifacts/mvdfrm/UnityEngine.CoreModule.dll_25ACB5D56DD30F38.mvfrm
Library/Bee/artifacts/mvdfrm/UnityEngine.CrashReportingModule.dll_306C4117624355D0.mvfrm
Library/Bee/artifacts/mvdfrm/UnityEngine.DirectorModule.dll_5868434BD3C36B55.mvfrm
Library/Bee/artifacts/mvdfrm/UnityEngine.dll_5DBB77688F0774DD.mvfrm
Library/Bee/artifacts/mvdfrm/UnityEngine.DSPGraphModule.dll_5DB9A4B546243C76.mvfrm
Library/Bee/artifacts/mvdfrm/UnityEngine.GameCenterModule.dll_B645E590623A09F0.mvfrm
Library/Bee/artifacts/mvdfrm/UnityEngine.GIModule.dll_EB255894F5A8DADB.mvfrm
Library/Bee/artifacts/mvdfrm/UnityEngine.GridModule.dll_031DD1C38627A52F.mvfrm
Library/Bee/artifacts/mvdfrm/UnityEngine.HotReloadModule.dll_55B1040274B6B951.mvfrm
Library/Bee/artifacts/mvdfrm/UnityEngine.ImageConversionModule.dll_C2A52FCB3A7B27BC.mvfrm
Library/Bee/artifacts/mvdfrm/UnityEngine.IMGUIModule.dll_BD61DD4AB81806E2.mvfrm
Library/Bee/artifacts/mvdfrm/UnityEngine.InputLegacyModule.dll_565BDF10E642CACE.mvfrm
Library/Bee/artifacts/mvdfrm/UnityEngine.InputModule.dll_EB780594681E97A5.mvfrm
Library/Bee/artifacts/mvdfrm/UnityEngine.JSONSerializeModule.dll_2D0151E18D6221F3.mvfrm
Library/Bee/artifacts/mvdfrm/UnityEngine.LocalizationModule.dll_11CEDFBB6AA31F02.mvfrm
Library/Bee/artifacts/mvdfrm/UnityEngine.NVIDIAModule.dll_A9B74BBA41FCDAA4.mvfrm
Library/Bee/artifacts/mvdfrm/UnityEngine.ParticleSystemModule.dll_837E8A63D054E15E.mvfrm
Library/Bee/artifacts/mvdfrm/UnityEngine.PerformanceReportingModule.dll_E768CA904D97DBF7.mvfrm
Library/Bee/artifacts/mvdfrm/UnityEngine.Physics2DModule.dll_210E35ED3A809564.mvfrm
Library/Bee/artifacts/mvdfrm/UnityEngine.PhysicsModule.dll_F3EBDC3CF643F7F2.mvfrm
Library/Bee/artifacts/mvdfrm/UnityEngine.ProfilerModule.dll_8AAE7C826D1CF262.mvfrm
Library/Bee/artifacts/mvdfrm/UnityEngine.RuntimeInitializeOnLoadManagerInitializerModule.dll_00671DDB4206CE2D.mvfrm
Library/Bee/artifacts/mvdfrm/UnityEngine.ScreenCaptureModule.dll_46E8FF66A1CE4E55.mvfrm
Library/Bee/artifacts/mvdfrm/UnityEngine.SharedInternalsModule.dll_46B66EA0B1A9230C.mvfrm
Library/Bee/artifacts/mvdfrm/UnityEngine.SpriteMaskModule.dll_9F72582083A99F6A.mvfrm
Library/Bee/artifacts/mvdfrm/UnityEngine.SpriteShapeModule.dll_DE77F14D03F34CE7.mvfrm
Library/Bee/artifacts/mvdfrm/UnityEngine.StreamingModule.dll_88FD334CE90B550D.mvfrm
Library/Bee/artifacts/mvdfrm/UnityEngine.SubstanceModule.dll_65A84796345E531B.mvfrm
Library/Bee/artifacts/mvdfrm/UnityEngine.SubsystemsModule.dll_0A1FBE8251F1877D.mvfrm
Library/Bee/artifacts/mvdfrm/UnityEngine.TerrainModule.dll_0E3257ABCC0240E0.mvfrm
Library/Bee/artifacts/mvdfrm/UnityEngine.TerrainPhysicsModule.dll_83F93336E997DBEB.mvfrm
Library/Bee/artifacts/mvdfrm/UnityEngine.TextCoreFontEngineModule.dll_8C8FCEF63AEDE1B6.mvfrm
Library/Bee/artifacts/mvdfrm/UnityEngine.TextCoreTextEngineModule.dll_D4780567CA719AD4.mvfrm
Library/Bee/artifacts/mvdfrm/UnityEngine.TextRenderingModule.dll_702871715905CE4A.mvfrm
Library/Bee/artifacts/mvdfrm/UnityEngine.TilemapModule.dll_AD2EBF2CE3BF21E9.mvfrm
Library/Bee/artifacts/mvdfrm/UnityEngine.TLSModule.dll_CD1DF1771E5BFC46.mvfrm
Library/Bee/artifacts/mvdfrm/UnityEngine.UIElementsModule.dll_0E5E1FEA551DC374.mvfrm
Library/Bee/artifacts/mvdfrm/UnityEngine.UIElementsNativeModule.dll_C8E665898FC6034B.mvfrm
Library/Bee/artifacts/mvdfrm/UnityEngine.UIModule.dll_4E5CADB4B640F86D.mvfrm
Library/Bee/artifacts/mvdfrm/UnityEngine.UmbraModule.dll_FFD6E9FC7F0D1E74.mvfrm
Library/Bee/artifacts/mvdfrm/UnityEngine.UNETModule.dll_B852FDBEBAE204B1.mvfrm
Library/Bee/artifacts/mvdfrm/UnityEngine.UnityAnalyticsCommonModule.dll_82A787D467807A55.mvfrm
Library/Bee/artifacts/mvdfrm/UnityEngine.UnityAnalyticsModule.dll_A31DFB2D7C7C335A.mvfrm
Library/Bee/artifacts/mvdfrm/UnityEngine.UnityConnectModule.dll_414524621C2759EE.mvfrm
Library/Bee/artifacts/mvdfrm/UnityEngine.UnityCurlModule.dll_0784E72E09978FBC.mvfrm
Library/Bee/artifacts/mvdfrm/UnityEngine.UnityTestProtocolModule.dll_8744157C4C27822A.mvfrm
Library/Bee/artifacts/mvdfrm/UnityEngine.UnityWebRequestAssetBundleModule.dll_83B50E39CD7A49AB.mvfrm
Library/Bee/artifacts/mvdfrm/UnityEngine.UnityWebRequestAudioModule.dll_5F651E6ED402A68F.mvfrm
Library/Bee/artifacts/mvdfrm/UnityEngine.UnityWebRequestModule.dll_D4443775456FC23B.mvfrm
Library/Bee/artifacts/mvdfrm/UnityEngine.UnityWebRequestTextureModule.dll_0604C4C059313444.mvfrm
Library/Bee/artifacts/mvdfrm/UnityEngine.UnityWebRequestWWWModule.dll_9F3A4AC3BA315740.mvfrm
Library/Bee/artifacts/mvdfrm/UnityEngine.VehiclesModule.dll_D02B3CCB4DED3AF0.mvfrm
Library/Bee/artifacts/mvdfrm/UnityEngine.VFXModule.dll_4DFC89E5F4C965B3.mvfrm
Library/Bee/artifacts/mvdfrm/UnityEngine.VideoModule.dll_AA0BC24EB4788EA6.mvfrm
Library/Bee/artifacts/mvdfrm/UnityEngine.VirtualTexturingModule.dll_ED7319F8687483D6.mvfrm
Library/Bee/artifacts/mvdfrm/UnityEngine.VRModule.dll_A12ED43A57FB7DE5.mvfrm
Library/Bee/artifacts/mvdfrm/UnityEngine.WindModule.dll_9BFB90FDFF098DA1.mvfrm
Library/Bee/artifacts/mvdfrm/UnityEngine.XRModule.dll_D3ED973EE135CB43.mvfrm
Library/Bee/artifacts/mvdfrm/UnityEditor.OSXStandalone.Extensions.dll_CEE5A1896353178E.mvfrm
Library/Bee/artifacts/mvdfrm/Unity.Analytics.StandardEvents.dll_60735227600EA8A9.mvfrm
Library/Bee/artifacts/mvdfrm/Unity.Analytics.Editor.dll_E0D924DD687D490D.mvfrm
Library/Bee/artifacts/mvdfrm/Unity.Analytics.Tracker.dll_BD1ACF1843647754.mvfrm
Library/Bee/artifacts/mvdfrm/Unity.Plastic.Antlr3.Runtime.dll_712C52271B780F66.mvfrm
Library/Bee/artifacts/mvdfrm/Unity.Plastic.Newtonsoft.Json.dll_EF5E3A6502448C6F.mvfrm
Library/Bee/artifacts/mvdfrm/Unity.VisualScripting.IonicZip.dll_C1FBBFFEAC2FD563.mvfrm
Library/Bee/artifacts/mvdfrm/Unity.VisualScripting.YamlDotNet.dll_3590117A740F6709.mvfrm
Library/Bee/artifacts/mvdfrm/Unity.VisualScripting.TextureAssets.dll_CCAE3ACE34DCC501.mvfrm
Library/Bee/artifacts/mvdfrm/Unity.VisualScripting.Antlr3.Runtime.dll_E6FD385BA4D87728.mvfrm